493 1 188 233 208 259
494 1 187 232 208 259
495 1 187 236 208 262
496 1 188 234 209 261
497 1 188 238 210 265
498 1 189 234 210 262
499 1 190 237 211 264
500 1 191 235 212 262
501 1 191 239 212 267
502 1 192 236 213 264
503 1 193 238 214 268
505 1 194 239 215 267
506 1 194 237 216 265
507 1 194 236 216 266
508 1 195 238 216 266
509 1 195 237 217 266
510 1 194 237 216 266
511 1 194 238 217 266
512 1 194 237 217 267
513 1 193 237 216 265
514 1 193 237 216 268
515 1 192 237 215 267
516 1 192 237 215 267
517 1 191 236 214 266
518 1 190 235 214 266
519 1 189 235 213 266
520 1 189 236 212 266
521 1 188 236 212 266
522 1 187 235 212 264
523 1 187 235 210 266
524 1 186 235 210 266
525 1 185 235 210 266
526 1 184 234 209 265
527 1 184 235 208 266
528 1 183 235 208 266
529 1 184 234 208 266
530 1 183 234 208 266
531 1 183 234 208 266
532 1 183 235 209 268
533 1 183 233 209 266
534 1 183 235 209 268
535 1 183 234 209 268
536 1 183 233 209 266
537 1 182 235 209 268
538 1 182 234 209 268
539 1 181 235 208 268
540 1 180 233 207 268
541 1 179 235 207 269
542 1 179 234 206 269
543 1 178 234 205 269
544 1 177 234 205 269
545 1 176 235 204 269
546 1 176 235 204 270
547 1 175 235 204 271
548 1 175 235 204 270
549 1 175 233 204 270
550 1 177 235 206 272
551 1 179 235 207 272
552 1 181 237 209 273
553 1 182 236 211 272
554 1 184 240 213 276
555 1 185 238 214 274
556 1 187 238 216 274
557 1 187 237 218 274
558 1 188 237 218 276
559 1 190 239 220 277
560 1 190 236 220 274
561 1 190 237 220 275
562 1 189 237 220 276
563 1 187 237 218 276
564 1 185 236 216 276
565 1 183 235 214 276
566 1 180 235 212 276
567 1 177 235 210 276
568 1 174 233 207 274
569 1 171 234 204 276
570 1 169 231 202 272 
571 1 167 235 200 278
572 1 165 231 198 274
573 1 163 232 197 274
574 1 161 231 195 275
575 1 159 230 193 273
576 1 158 233 191 275
577 1 156 232 190 274
578 1 154 231 188 274
579 1 153 229 189 275
580 1 153 223 188 268
581 1 154 233 189 278
582 1 152 228 188 274
583 1 152 230 188 276
584 1 151 229 188 276
585 1 151 229 188 276
586 1 151 229 188 276
587 1 151 229 188 276
588 1 149 230 187 278
589 1 149 230 187 278
590 1 148 230 186 279
591 1 146 230 185 280
592 1 145 231 184 280
593 1 144 231 184 282
594 1 144 231 183 282
595 1 142 230 183 282
596 1 141 231 182 284
597 1 141 229 182 282
598 1 140 229 182 282
599 1 140 230 181 282
600 1 139 228 181 283
601 1 137 227 181 281
602 1 136 227 181 282
603 1 136 227 180 282
604 1 135 227 180 283
605 1 134 226 179 284
606 1 133 225 179 283
607 1 131 226 178 285
608 1 130 223 177 282
609 1 129 225 176 286
610 1 127 225 175 284
611 1 125 225 173 286
612 1 123 223 173 284
613 1 121 223 171 284
614 1 119 222 170 286
615 1 117 222 168 286
616 1 115 219 166 285
617 1 112 220 164 286
618 1 109 220 162 287
619 1 107 219 161 287
620 1 104 219 159 288
621 1 102 219 157 288
622 1 100 219 155 289
623 1 99 218 154 290
624 1 96 219 154 292
625 1 95 217 152 291
626 1 92 219 152 293
627 1 92 216 152 293
628 1 91 217 152 294
629 1 89 215 152 294
630 1 89 215 152 295
631 1 88 215 152 295
632 1 85 215 150 296
633 1 84 213 148 295
634 1 81 212 148 297
635 1 78 212 146 299
636 1 74 212 144 299
638 1 63 212 137 304
639 1 57 207 131 303
640 1 51 212 128 307
641 1 44 210 123 307
642 1 38 212 118 311
643 1 30 206 112 308
644 1 22 206 107 311
645 1 16 208 102 313
646 1 8 201 96 311
647 1 2 205 92 317
648 1 2 199 88 313
649 1 4 206 80 322
650 1 2 200 75 321
651 1 2 198 70 324
1034 1 369 229 390 256
1035 1 369 229 389 256
1036 1 368 227 389 256
1037 1 368 228 388 255
1038 1 367 227 388 256
1039 1 368 227 389 256
1040 1 369 229 390 258
1041 1 369 227 390 256
1042 1 369 227 391 256
1043 1 371 227 392 256
1044 1 371 228 393 258
1045 1 371 227 394 257
1046 1 373 226 396 258
1047 1 374 226 397 257
1048 1 375 227 398 257
1049 1 377 226 400 258
1050 1 377 227 401 260
1051 1 379 227 402 258
1052 1 381 227 404 258
1053 1 381 227 405 258
1054 1 383 227 406 258
1055 1 384 227 407 258
1056 1 385 227 408 258
1057 1 385 227 409 258
1058 1 385 227 410 260
1059 1 385 227 410 260
1060 1 386 227 410 260
1061 1 386 227 412 260
1062 1 386 225 412 260
1063 1 387 226 413 260
1064 1 387 225 413 260
1065 1 387 226 413 260
1066 1 386 225 414 260
1067 1 385 225 413 261
1068 1 384 225 411 261
1069 1 382 225 408 261
1070 1 380 225 408 261
1071 1 379 225 407 262
1072 1 377 225 405 262
1073 1 375 224 403 263
1074 1 373 224 402 262
1075 1 372 224 400 262
1076 1 370 225 399 262
1077 1 368 224 397 263
1078 1 368 225 397 264
1079 1 367 224 396 264
1080 1 365 224 395 264
1081 1 363 224 395 264
1082 1 364 223 394 264
1083 1 363 223 394 264
1084 1 365 223 396 264
1085 1 365 223 398 264
1086 1 368 223 401 264
1087 1 372 223 405 266
1088 1 377 221 410 265
1089 1 381 221 415 266
1090 1 385 221 420 266
1091 1 389 221 423 266
1092 1 392 220 427 267
1093 1 395 221 430 267
1094 1 397 220 434 267
1095 1 401 220 437 268
1096 1 402 218 440 266
1097 1 405 218 442 267
1098 1 407 217 446 267
1099 1 409 217 448 268
1100 1 411 217 450 268
1101 1 413 216 452 268
1102 1 414 216 454 268
1103 1 415 216 455 268
1104 1 416 216 456 268
1105 1 417 216 458 268
1106 1 417 215 459 269
1107 1 417 214 459 270
1108 1 418 214 460 269
1109 1 419 213 462 270
1110 1 420 214 463 270
1111 1 422 214 464 271
1112 1 422 214 466 272
1113 1 424 214 468 272
1114 1 424 213 470 273
1115 1 427 213 473 273
1116 1 429 213 475 273
1117 1 431 213 478 275
1118 1 433 212 481 275
1119 1 436 212 483 274
1120 1 437 211 487 276
1121 1 440 209 490 275
1122 1 442 210 493 275
1123 1 444 208 496 276
1124 1 447 208 500 276
1125 1 450 207 502 276
1126 1 452 206 506 276
1127 1 454 206 510 276
1128 1 457 204 512 276
1129 1 460 206 516 278
1130 1 460 204 516 278
1131 1 462 201 519 277
1132 1 464 201 522 278
1133 1 465 200 524 278
1134 1 469 201 529 280
1135 1 470 201 531 280
1136 1 473 200 535 281
1137 1 476 199 538 282
1138 1 479 199 543 285
1139 1 482 199 547 284
1140 1 485 200 551 286
1141 1 489 199 556 286
1142 1 491 198 560 288
1143 1 496 197 565 288
1144 1 499 196 570 288
1145 1 503 194 575 289
1146 1 507 193 581 289
1147 1 513 192 588 292
1148 1 516 190 594 290
1149 1 522 188 602 293
1150 1 528 189 609 294
1151 1 535 187 617 296
1152 1 539 185 625 296
1153 1 546 184 632 297
1154 1 554 182 638 298
1155 1 560 184 638 302
1156 1 567 181 638 303
1157 1 572 179 638 306
1158 1 581 179 638 305
